%YAML 1.1
%TAG !u! tag:unity3d.com,2011:
--- !u!74 &7400000
AnimationClip:
  m_ObjectHideFlags: 0
  m_PrefabParentObject: {fileID: 0}
  m_PrefabInternal: {fileID: 0}
  m_Name: PlayerStrikeUp
  serializedVersion: 4
  m_AnimationType: 2
  m_Compressed: 0
  m_UseHighQualityCurve: 1
  m_RotationCurves:
  - curve:
      serializedVersion: 2
      m_Curve:
      - time: 0
        value: {x: 0, y: 0, z: .707106769, w: .707106769}
        inSlope: {x: 0, y: 0, z: 3.47907543, w: -4.35880566}
        outSlope: {x: 0, y: 0, z: 3.47907543, w: -4.35880566}
        tangentMode: 527
      - time: .0399999991
        value: {x: 0, y: 0, z: .846269786, w: .53275454}
        inSlope: {x: 0, y: 0, z: 1.67047751, w: -2.07094336}
        outSlope: {x: 0, y: 0, z: 1.67047751, w: -2.07094336}
        tangentMode: 0
      - time: .0799999982
        value: {x: 0, y: 0, z: .840744972, w: .541431308}
        inSlope: {x: 0, y: 0, z: 1.27263963, w: -2.68406773}
        outSlope: {x: 0, y: 0, z: 1.27263963, w: -2.68406773}
        tangentMode: 769167175
      - time: .119999997
        value: {x: 0, y: 0, z: .948080957, w: .318029135}
        inSlope: {x: 0, y: 0, z: 1.86451459, w: -4.99633217}
        outSlope: {x: 0, y: 0, z: 1.86451459, w: -4.99633217}
        tangentMode: 0
      - time: .159999996
        value: {x: 0, y: 0, z: .989906132, w: .141724735}
        inSlope: {x: 0, y: 0, z: .648850203, w: -3.916677}
        outSlope: {x: 0, y: 0, z: .648850203, w: -3.916677}
        tangentMode: 0
      - time: .199999988
        value: {x: 0, y: 0, z: .999988973, w: .00469499687}
        inSlope: {x: 0, y: 0, z: -.138491422, w: -4.3301878}
        outSlope: {x: 0, y: 0, z: -.138491422, w: -4.3301878}
        tangentMode: 0
      - time: .23999998
        value: {x: 0, y: 0, z: .978826821, w: -.204690248}
        inSlope: {x: 0, y: 0, z: -.702786565, w: -4.19136429}
        outSlope: {x: 0, y: 0, z: -.702786565, w: -4.19136429}
        tangentMode: 39
      - time: .279999971
        value: {x: 0, y: 0, z: .943766057, w: -.33061406}
        inSlope: {x: 0, y: 0, z: -1.47564518, w: -3.80368876}
        outSlope: {x: 0, y: 0, z: -1.47564518, w: -3.80368876}
        tangentMode: 2036419616
      - time: .319999963
        value: {x: 0, y: 0, z: .860775232, w: -.508985281}
        inSlope: {x: 0, y: 0, z: -2.95823908, w: -4.70615625}
        outSlope: {x: 0, y: 0, z: -2.95823908, w: -4.70615625}
        tangentMode: 112504864
      - time: .360000014
        value: {x: 0, y: 0, z: .707106769, w: -.707106769}
        inSlope: {x: 0, y: 0, z: -3.84170675, w: -4.95303106}
        outSlope: {x: 0, y: 0, z: -3.84170675, w: -4.95303106}
        tangentMode: 108002440
      m_PreInfinity: 2
      m_PostInfinity: 2
    path: Sword
  m_CompressedRotationCurves: []
  m_PositionCurves:
  - curve:
      serializedVersion: 2
      m_Curve:
      - time: 0
        value: {x: .488738298, y: .0492832512, z: 0}
        inSlope: {x: 2.45065093, y: 4.05076408, z: 0}
        outSlope: {x: 2.45065093, y: 4.05076408, z: 0}
        tangentMode: 1086324736
      - time: .0399999991
        value: {x: .586764336, y: .211313814, z: 0}
        inSlope: {x: .669941306, y: 3.77652979, z: 0}
        outSlope: {x: .669941306, y: 3.77652979, z: 0}
        tangentMode: 1077936128
      - time: .0799999982
        value: {x: .542333603, y: .351405621, z: 0}
        inSlope: {x: -4.37719679, y: 6.59354305, z: 0}
        outSlope: {x: -4.37719679, y: 6.59354305, z: 0}
        tangentMode: 1086324736
      - time: .119999997
        value: {x: .236588597, y: .738797247, z: 0}
        inSlope: {x: -6.29932022, y: 5.24034882, z: 0}
        outSlope: {x: -6.29932022, y: 5.24034882, z: 0}
        tangentMode: 1086324736
      - time: .159999996
        value: {x: .0383880138, y: .770633519, z: 0}
        inSlope: {x: -5.96433544, y: -1.14854252, z: 0}
        outSlope: {x: -5.96433544, y: -1.14854252, z: 0}
        tangentMode: 1082130432
      - time: .200000003
        value: {x: -.240558267, y: .646913826, z: 0}
        inSlope: {x: -5.63744736, y: -3.21422291, z: 0}
        outSlope: {x: -5.63744736, y: -3.21422291, z: 0}
        tangentMode: 0
      - time: .239999995
        value: {x: -.412607789, y: .513495684, z: 0}
        inSlope: {x: -4.10878086, y: -3.3893981, z: 0}
        outSlope: {x: -4.10878086, y: -3.3893981, z: 0}
        tangentMode: 2139095040
      - time: .280000001
        value: {x: -.569260716, y: .375761986, z: 0}
        inSlope: {x: -2.90410805, y: -5.14889765, z: 0}
        outSlope: {x: -2.90410805, y: -5.14889765, z: 0}
        tangentMode: 0
      - time: .319999993
        value: {x: -.644936442, y: .101583891, z: 0}
        inSlope: {x: -1.63246965, y: -6.18122149, z: 0}
        outSlope: {x: -1.63246965, y: -6.18122149, z: 0}
        tangentMode: 0
      - time: .360000014
        value: {x: -.699858308, y: -.118735805, z: 0}
        inSlope: {x: -1.37304592, y: -5.50798941, z: 0}
        outSlope: {x: -1.37304592, y: -5.50798941, z: 0}
        tangentMode: 0
      m_PreInfinity: 2
      m_PostInfinity: 2
    path: Sword
  m_ScaleCurves: []
  m_FloatCurves:
  - curve:
      serializedVersion: 2
      m_Curve:
      - time: .0399999991
        value: 1
        inSlope: Infinity
        outSlope: Infinity
        tangentMode: 31
      - time: .360000014
        value: 0
        inSlope: Infinity
        outSlope: Infinity
        tangentMode: 31
      m_PreInfinity: 2
      m_PostInfinity: 2
    attribute: m_IsActive
    path: Sword
    classID: 1
    script: {fileID: 0}
  m_PPtrCurves:
  - curve:
    - time: 0
      value: {fileID: 21300320, guid: a51ae293c07d72e4e9589fa16a4539db, type: 3}
    - time: .0399999991
      value: {fileID: 21300322, guid: a51ae293c07d72e4e9589fa16a4539db, type: 3}
    - time: .0799999982
      value: {fileID: 21300324, guid: a51ae293c07d72e4e9589fa16a4539db, type: 3}
    - time: .119999997
      value: {fileID: 21300326, guid: a51ae293c07d72e4e9589fa16a4539db, type: 3}
    - time: .159999996
      value: {fileID: 21300328, guid: a51ae293c07d72e4e9589fa16a4539db, type: 3}
    - time: .200000003
      value: {fileID: 21300330, guid: a51ae293c07d72e4e9589fa16a4539db, type: 3}
    - time: .239999995
      value: {fileID: 21300332, guid: a51ae293c07d72e4e9589fa16a4539db, type: 3}
    - time: .280000001
      value: {fileID: 21300334, guid: a51ae293c07d72e4e9589fa16a4539db, type: 3}
    - time: .319999993
      value: {fileID: 21300336, guid: a51ae293c07d72e4e9589fa16a4539db, type: 3}
    - time: .360000014
      value: {fileID: 21300156, guid: 80ab79ac831ac1144a9e3973cf7ae2ad, type: 3}
    attribute: m_Sprite
    path: PlayerSprite
    classID: 212
    script: {fileID: 0}
  m_SampleRate: 25
  m_WrapMode: 0
  m_Bounds:
    m_Center: {x: 0, y: 0, z: 0}
    m_Extent: {x: 0, y: 0, z: 0}
  m_ClipBindingConstant:
    genericBindings:
    - path: 1529145355
      attribute: 1
      script: {fileID: 0}
      classID: 4
      customType: 0
      isPPtrCurve: 0
    - path: 1529145355
      attribute: 2
      script: {fileID: 0}
      classID: 4
      customType: 0
      isPPtrCurve: 0
    - path: 1529145355
      attribute: 2086281974
      script: {fileID: 0}
      classID: 1
      customType: 0
      isPPtrCurve: 0
    - path: 533382794
      attribute: 0
      script: {fileID: 0}
      classID: 212
      customType: 23
      isPPtrCurve: 1
    pptrCurveMapping:
    - {fileID: 21300320, guid: a51ae293c07d72e4e9589fa16a4539db, type: 3}
    - {fileID: 21300322, guid: a51ae293c07d72e4e9589fa16a4539db, type: 3}
    - {fileID: 21300324, guid: a51ae293c07d72e4e9589fa16a4539db, type: 3}
    - {fileID: 21300326, guid: a51ae293c07d72e4e9589fa16a4539db, type: 3}
    - {fileID: 21300328, guid: a51ae293c07d72e4e9589fa16a4539db, type: 3}
    - {fileID: 21300330, guid: a51ae293c07d72e4e9589fa16a4539db, type: 3}
    - {fileID: 21300332, guid: a51ae293c07d72e4e9589fa16a4539db, type: 3}
    - {fileID: 21300334, guid: a51ae293c07d72e4e9589fa16a4539db, type: 3}
    - {fileID: 21300336, guid: a51ae293c07d72e4e9589fa16a4539db, type: 3}
    - {fileID: 21300156, guid: 80ab79ac831ac1144a9e3973cf7ae2ad, type: 3}
  m_AnimationClipSettings:
    serializedVersion: 2
    m_StartTime: 0
    m_StopTime: .400000006
    m_OrientationOffsetY: 0
    m_Level: 0
    m_CycleOffset: 0
    m_LoopTime: 1
    m_LoopBlend: 0
    m_LoopBlendOrientation: 0
    m_LoopBlendPositionY: 0
    m_LoopBlendPositionXZ: 0
    m_KeepOriginalOrientation: 0
    m_KeepOriginalPositionY: 1
    m_KeepOriginalPositionXZ: 0
    m_HeightFromFeet: 0
    m_Mirror: 0
  m_EditorCurves:
  - curve:
      serializedVersion: 2
      m_Curve:
      - time: 0
        value: .488738298
        inSlope: 2.45065093
        outSlope: 2.45065093
        tangentMode: 10
      - time: .0399999991
        value: .586764336
        inSlope: .669941306
        outSlope: .669941306
        tangentMode: 10
      - time: .0799999982
        value: .542333603
        inSlope: -4.37719679
        outSlope: -4.37719679
        tangentMode: 10
      - time: .119999997
        value: .236588597
        inSlope: -6.29932022
        outSlope: -6.29932022
        tangentMode: 10
      - time: .159999996
        value: .0383880138
        inSlope: -5.96433544
        outSlope: -5.96433544
        tangentMode: 10
      - time: .200000003
        value: -.240558267
        inSlope: -5.63744736
        outSlope: -5.63744736
        tangentMode: 10
      - time: .239999995
        value: -.412607789
        inSlope: -4.10878086
        outSlope: -4.10878086
        tangentMode: 10
      - time: .280000001
        value: -.569260716
        inSlope: -2.90410805
        outSlope: -2.90410805
        tangentMode: 10
      - time: .319999993
        value: -.644936442
        inSlope: -1.63246965
        outSlope: -1.63246965
        tangentMode: 10
      - time: .360000014
        value: -.699858308
        inSlope: -1.37304592
        outSlope: -1.37304592
        tangentMode: 10
      m_PreInfinity: 2
      m_PostInfinity: 2
    attribute: m_LocalPosition.x
    path: Sword
    classID: 4
    script: {fileID: 0}
  - curve:
      serializedVersion: 2
      m_Curve:
      - time: 0
        value: .0492832512
        inSlope: 4.05076408
        outSlope: 4.05076408
        tangentMode: 10
      - time: .0399999991
        value: .211313814
        inSlope: 3.77652979
        outSlope: 3.77652979
        tangentMode: 10
      - time: .0799999982
        value: .351405621
        inSlope: 6.59354305
        outSlope: 6.59354305
        tangentMode: 10
      - time: .119999997
        value: .738797247
        inSlope: 5.24034882
        outSlope: 5.24034882
        tangentMode: 10
      - time: .159999996
        value: .770633519
        inSlope: -1.14854252
        outSlope: -1.14854252
        tangentMode: 10
      - time: .200000003
        value: .646913826
        inSlope: -3.21422291
        outSlope: -3.21422291
        tangentMode: 10
      - time: .239999995
        value: .513495684
        inSlope: -3.3893981
        outSlope: -3.3893981
        tangentMode: 10
      - time: .280000001
        value: .375761986
        inSlope: -5.14889765
        outSlope: -5.14889765
        tangentMode: 10
      - time: .319999993
        value: .101583891
        inSlope: -6.18122149
        outSlope: -6.18122149
        tangentMode: 10
      - time: .360000014
        value: -.118735805
        inSlope: -5.50798941
        outSlope: -5.50798941
        tangentMode: 10
      m_PreInfinity: 2
      m_PostInfinity: 2
    attribute: m_LocalPosition.y
    path: Sword
    classID: 4
    script: {fileID: 0}
  - curve:
      serializedVersion: 2
      m_Curve:
      - time: 0
        value: 0
        inSlope: 0
        outSlope: 0
        tangentMode: 10
      - time: .0399999991
        value: 0
        inSlope: 0
        outSlope: 0
        tangentMode: 10
      - time: .0799999982
        value: 0
        inSlope: 0
        outSlope: 0
        tangentMode: 10
      - time: .119999997
        value: 0
        inSlope: 0
        outSlope: 0
        tangentMode: 10
      - time: .159999996
        value: 0
        inSlope: 0
        outSlope: 0
        tangentMode: 10
      - time: .200000003
        value: 0
        inSlope: 0
        outSlope: 0
        tangentMode: 10
      - time: .239999995
        value: 0
        inSlope: 0
        outSlope: 0
        tangentMode: 10
      - time: .280000001
        value: 0
        inSlope: 0
        outSlope: 0
        tangentMode: 10
      - time: .319999993
        value: 0
        inSlope: 0
        outSlope: 0
        tangentMode: 10
      - time: .360000014
        value: 0
        inSlope: 0
        outSlope: 0
        tangentMode: 10
      m_PreInfinity: 2
      m_PostInfinity: 2
    attribute: m_LocalPosition.z
    path: Sword
    classID: 4
    script: {fileID: 0}
  - curve:
      serializedVersion: 2
      m_Curve:
      - time: .0399999991
        value: 1
        inSlope: Infinity
        outSlope: Infinity
        tangentMode: 31
      - time: .360000014
        value: 0
        inSlope: Infinity
        outSlope: Infinity
        tangentMode: 31
      m_PreInfinity: 2
      m_PostInfinity: 2
    attribute: m_IsActive
    path: Sword
    classID: 1
    script: {fileID: 0}
  - curve:
      serializedVersion: 2
      m_Curve:
      - time: 0
        value: 0
        inSlope: 0
        outSlope: 0
        tangentMode: 0
      - time: .0399999991
        value: 0
        inSlope: 0
        outSlope: 0
        tangentMode: 0
      - time: .0799999982
        value: 0
        inSlope: 0
        outSlope: 0
        tangentMode: 0
      - time: .119999997
        value: 0
        inSlope: 0
        outSlope: 0
        tangentMode: 0
      - time: .159999996
        value: 0
        inSlope: 0
        outSlope: 0
        tangentMode: 0
      - time: .199999988
        value: 0
        inSlope: 0
        outSlope: 0
        tangentMode: 0
      - time: .23999998
        value: 0
        inSlope: 0
        outSlope: 0
        tangentMode: 0
      - time: .279999971
        value: 0
        inSlope: 0
        outSlope: 0
        tangentMode: 0
      - time: .319999963
        value: 0
        inSlope: 0
        outSlope: 0
        tangentMode: 0
      - time: .360000014
        value: 0
        inSlope: 0
        outSlope: 0
        tangentMode: 0
      m_PreInfinity: 2
      m_PostInfinity: 2
    attribute: m_LocalRotation.x
    path: Sword
    classID: 4
    script: {fileID: 0}
  - curve:
      serializedVersion: 2
      m_Curve:
      - time: 0
        value: 0
        inSlope: 0
        outSlope: 0
        tangentMode: 0
      - time: .0399999991
        value: 0
        inSlope: 0
        outSlope: 0
        tangentMode: 0
      - time: .0799999982
        value: 0
        inSlope: 0
        outSlope: 0
        tangentMode: 0
      - time: .119999997
        value: 0
        inSlope: 0
        outSlope: 0
        tangentMode: 0
      - time: .159999996
        value: 0
        inSlope: 0
        outSlope: 0
        tangentMode: 0
      - time: .199999988
        value: 0
        inSlope: 0
        outSlope: 0
        tangentMode: 0
      - time: .23999998
        value: 0
        inSlope: 0
        outSlope: 0
        tangentMode: 0
      - time: .279999971
        value: 0
        inSlope: 0
        outSlope: 0
        tangentMode: 0
      - time: .319999963
        value: 0
        inSlope: 0
        outSlope: 0
        tangentMode: 0
      - time: .360000014
        value: 0
        inSlope: 0
        outSlope: 0
        tangentMode: 0
      m_PreInfinity: 2
      m_PostInfinity: 2
    attribute: m_LocalRotation.y
    path: Sword
    classID: 4
    script: {fileID: 0}
  - curve:
      serializedVersion: 2
      m_Curve:
      - time: 0
        value: .707106769
        inSlope: 3.47907543
        outSlope: 3.47907543
        tangentMode: 0
      - time: .0399999991
        value: .846269786
        inSlope: 1.67047751
        outSlope: 1.67047751
        tangentMode: 0
      - time: .0799999982
        value: .840744972
        inSlope: 1.27263963
        outSlope: 1.27263963
        tangentMode: 0
      - time: .119999997
        value: .948080957
        inSlope: 1.86451459
        outSlope: 1.86451459
        tangentMode: 0
      - time: .159999996
        value: .989906132
        inSlope: .648850203
        outSlope: .648850203
        tangentMode: 0
      - time: .199999988
        value: .999988973
        inSlope: -.138491422
        outSlope: -.138491422
        tangentMode: 0
      - time: .23999998
        value: .978826821
        inSlope: -.702786565
        outSlope: -.702786565
        tangentMode: 0
      - time: .279999971
        value: .943766057
        inSlope: -1.47564518
        outSlope: -1.47564518
        tangentMode: 0
      - time: .319999963
        value: .860775232
        inSlope: -2.95823908
        outSlope: -2.95823908
        tangentMode: 0
      - time: .360000014
        value: .707106769
        inSlope: -3.84170675
        outSlope: -3.84170675
        tangentMode: 0
      m_PreInfinity: 2
      m_PostInfinity: 2
    attribute: m_LocalRotation.z
    path: Sword
    classID: 4
    script: {fileID: 0}
  - curve:
      serializedVersion: 2
      m_Curve:
      - time: 0
        value: .707106769
        inSlope: -4.35880566
        outSlope: -4.35880566
        tangentMode: 0
      - time: .0399999991
        value: .53275454
        inSlope: -2.07094336
        outSlope: -2.07094336
        tangentMode: 0
      - time: .0799999982
        value: .541431308
        inSlope: -2.68406773
        outSlope: -2.68406773
        tangentMode: 0
      - time: .119999997
        value: .318029135
        inSlope: -4.99633217
        outSlope: -4.99633217
        tangentMode: 0
      - time: .159999996
        value: .141724735
        inSlope: -3.916677
        outSlope: -3.916677
        tangentMode: 0
      - time: .199999988
        value: .00469499687
        inSlope: -4.3301878
        outSlope: -4.3301878
        tangentMode: 0
      - time: .23999998
        value: -.204690248
        inSlope: -4.19136429
        outSlope: -4.19136429
        tangentMode: 0
      - time: .279999971
        value: -.33061406
        inSlope: -3.80368876
        outSlope: -3.80368876
        tangentMode: 0
      - time: .319999963
        value: -.508985281
        inSlope: -4.70615625
        outSlope: -4.70615625
        tangentMode: 0
      - time: .360000014
        value: -.707106769
        inSlope: -4.95303106
        outSlope: -4.95303106
        tangentMode: 0
      m_PreInfinity: 2
      m_PostInfinity: 2
    attribute: m_LocalRotation.w
    path: Sword
    classID: 4
    script: {fileID: 0}
  m_EulerEditorCurves:
  - curve:
      serializedVersion: 2
      m_Curve:
      - time: 0
        value: 0
        inSlope: 0
        outSlope: 0
        tangentMode: 10
      - time: .0399999991
        value: 0
        inSlope: 0
        outSlope: 0
        tangentMode: 10
      - time: .0799999982
        value: 0
        inSlope: 0
        outSlope: 0
        tangentMode: 10
      - time: .119999997
        value: 0
        inSlope: 0
        outSlope: 0
        tangentMode: 10
      - time: .159999996
        value: 0
        inSlope: 0
        outSlope: 0
        tangentMode: 10
      - time: .200000003
        value: 0
        inSlope: 0
        outSlope: 0
        tangentMode: 10
      - time: .239999995
        value: 0
        inSlope: 0
        outSlope: 0
        tangentMode: 10
      - time: .280000001
        value: 0
        inSlope: 0
        outSlope: 0
        tangentMode: 10
      - time: .319999993
        value: 0
        inSlope: 0
        outSlope: 0
        tangentMode: 10
      - time: .360000014
        value: 0
        inSlope: 0
        outSlope: 0
        tangentMode: 10
      m_PreInfinity: 2
      m_PostInfinity: 2
    attribute: localEulerAnglesBaked.x
    path: Sword
    classID: 4
    script: {fileID: 0}
  - curve:
      serializedVersion: 2
      m_Curve:
      - time: 0
        value: 0
        inSlope: 0
        outSlope: 0
        tangentMode: 10
      - time: .0399999991
        value: 0
        inSlope: 0
        outSlope: 0
        tangentMode: 10
      - time: .0799999982
        value: 0
        inSlope: 0
        outSlope: 0
        tangentMode: 10
      - time: .119999997
        value: 0
        inSlope: 0
        outSlope: 0
        tangentMode: 10
      - time: .159999996
        value: 0
        inSlope: 0
        outSlope: 0
        tangentMode: 10
      - time: .200000003
        value: 0
        inSlope: 0
        outSlope: 0
        tangentMode: 10
      - time: .239999995
        value: 0
        inSlope: 0
        outSlope: 0
        tangentMode: 10
      - time: .280000001
        value: 0
        inSlope: 0
        outSlope: 0
        tangentMode: 10
      - time: .319999993
        value: 0
        inSlope: 0
        outSlope: 0
        tangentMode: 10
      - time: .360000014
        value: 0
        inSlope: 0
        outSlope: 0
        tangentMode: 10
      m_PreInfinity: 2
      m_PostInfinity: 2
    attribute: localEulerAnglesBaked.y
    path: Sword
    classID: 4
    script: {fileID: 0}
  - curve:
      serializedVersion: 2
      m_Curve:
      - time: 0
        value: 90
        inSlope: 640.41217
        outSlope: 640.41217
        tangentMode: 10
      - time: .0399999991
        value: 115.616486
        inSlope: 305.471802
        outSlope: 305.471802
        tangentMode: 10
      - time: .0799999982
        value: 114.437744
        inSlope: 341.199524
        outSlope: 341.199524
        tangentMode: 10
      - time: .119999997
        value: 142.912445
        inSlope: 615.836731
        outSlope: 615.836731
        tangentMode: 10
      - time: .159999996
        value: 163.704681
        inSlope: 456.869263
        outSlope: 456.869263
        tangentMode: 10
      - time: .200000003
        value: 179.46199
        inSlope: 498.975769
        outSlope: 498.975769
        tangentMode: 10
      - time: .239999995
        value: 203.622742
        inSlope: 489.376678
        outSlope: 489.376678
        tangentMode: 10
      - time: .280000001
        value: 218.612122
        inSlope: 469.62265
        outSlope: 469.62265
        tangentMode: 10
      - time: .319999993
        value: 241.192551
        inSlope: 642.348389
        outSlope: 642.348389
        tangentMode: 10
      - time: .360000014
        value: 270
        inSlope: 720.185852
        outSlope: 720.185852
        tangentMode: 10
      m_PreInfinity: 2
      m_PostInfinity: 2
    attribute: localEulerAnglesBaked.z
    path: Sword
    classID: 4
    script: {fileID: 0}
  m_Events: []
