%YAML 1.1
%TAG !u! tag:unity3d.com,2011:
--- !u!1045 &1
EditorBuildSettings:
  m_ObjectHideFlags: 0
  serializedVersion: 2
  m_Scenes:
  - enabled: 1
    path: Assets/CoreGame/Cutscenes/LevelFloorBG3-Cut.unity
  - enabled: 1
    path: Assets/CoreGame/Scenes/Resources/LevelFloorBG0.unity
  - enabled: 1
    path: Assets/CoreGame/Scenes/Resources/LevelFloorBG1.unity
  - enabled: 1
    path: Assets/CoreGame/Scenes/Resources/LevelFloorBG2.unity
  - enabled: 1
    path: Assets/CoreGame/Scenes/Resources/LevelFloorBG3.unity
  - enabled: 1
    path: Assets/CoreGame/Scenes/Resources/LevelFloorBG4.unity
  - enabled: 1
    path: Assets/CoreGame/Scenes/Resources/LevelFloorBG5.unity
  - enabled: 1
    path: Assets/CoreGame/Scenes/Resources/LevelFloorBG6.unity
  - enabled: 1
    path: Assets/CoreGame/Scenes/Resources/LevelFloorBG7.unity
  - enabled: 1
    path: Assets/CoreGame/Scenes/Resources/LevelFloorBG8.unity
  - enabled: 1
    path: Assets/CoreGame/Scenes/Resources/LevelFloorBG9.unity
  - enabled: 1
    path: Assets/CoreGame/Scenes/Resources/LevelFloorBG10.unity
  - enabled: 1
    path: Assets/CoreGame/Scenes/Resources/LevelFloorBG11.unity
  - enabled: 1
    path: Assets/CoreGame/Scenes/Resources/LevelFloorBG12.unity
  - enabled: 1
    path: Assets/CoreGame/Scenes/Resources/MainScene.unity
